multiple_match_data
…
combined_df <- do.call(rbind, players_dfs)
combined_df

# A tibble: 260 × 52
      matchId kills playerSlot steamAccountId isRadiant isVictory heroId
        <dbl> <int>      <int>          <int> <lgl>     <lgl>      <int>
 1 7520462907     5          0      879653969 TRUE      TRUE          64
 2 7520462907    10          1      164762131 TRUE      TRUE          21
 3 7520462907     5          2      847372122 TRUE      TRUE          26
 4 7520462907     5          3      396508014 TRUE      TRUE         114
 5 7520462907    12          4     1101934532 TRUE      TRUE         102
 6 7520462907     1        128      323619179 FALSE     FALSE         27
 7 7520462907     1        129      303329396 FALSE     FALSE          1
 8 7520462907     5        130     1046153373 FALSE     FALSE         35
 9 7520462907     2        131      161796091 FALSE     FALSE         30
10 7520462907     2        132       92936679 FALSE     FALSE         49
# ℹ 250 more rows
# ℹ 45 more variables: gameVersionId <int>, deaths <int>, assists <int>,
#   leaverStatus <chr>, numLastHits <int>, numDenies <int>,
#   goldPerMinute <int>, networth <int>, experiencePerMinute <int>,
#   level <int>, gold <int>, goldSpent <int>, heroDamage <int>,
#   towerDamage <int>, heroHealing <int>, partyId <int>, isRandom <lgl>,
#   lane <chr>, position <chr>, streakPrediction <int>, …
